Data analysis with dplyr
…
If we ever get annoyed with a `tbl_df`, 
       we can turn it back into a dataframe with `as.data.frame()`.

class(as.data.frame(flights))

## [1] "data.frame"

The flights table clocks in at several hundred thousand rows. That’s a fair sized chunk of data. Nevertheless, our tricks from before work just the same.

Using the same technique from before, let’s retrieve all of the flights that went to Los Angeles (LAX).

rows_with_yvr <- flights$dest == "LAX"
flights[rows_with_yvr, ]

## # A tibble: 16,174 x 19
##     year month   day dep_t… sched_… dep_d… arr_… sched… arr_d… carr… flig…
##    <int> <int> <int>  <int>   <int>  <dbl> <int>  <int>  <dbl> <chr> <int>
##  1  2013     1     1    558     600 - 2.00   924    917   7.00 UA      194
##  2  2013     1     1    628     630 - 2.00  1016    947  29.0  UA     1665
##  3  2013     1     1    658     700 - 2.00  1027   1025   2.00 VX      399
##  4  2013     1     1    702     700   2.00  1058   1014  44.0  B6      671
##  5  2013     1     1    743     730  13.0   1107   1100   7.00 AA       33
##  6  2013     1     1    828     823   5.00  1150   1143   7.00 UA     1506
##  7  2013     1     1    829     830 - 1.00  1152   1200 - 8.00 UA      443
##  8  2013     1     1    856     900 - 4.00  1226   1220   6.00 AA        1
##  9  2013     1     1    859     900 - 1.00  1223   1225 - 2.00 VX      407
## 10  2013     1     1    921     900  21.0   1237   1227  10.0  DL      120
## # ... with 16,164 more rows, and 8 more variables: tailnum <chr>,
## #   origin <chr>, dest <chr>, air_time <dbl>, distance <dbl>, hour <dbl>,
## #   minute <dbl>, time_hour <dttm>
…
## [1] TRUE

TRUE & FALSE

## [1] FALSE

TRUE | FALSE

## [1] TRUE

Using this in an example with filter() to fetch all the flights to LAX in February:

filter(flights, dest == "LAX" & month == 2)

## # A tibble: 1,030 x 19
##     year month   day dep_t… sched_… dep_d… arr_… sched… arr_d… carr… flig…
##    <int> <int> <int>  <int>   <int>  <dbl> <int>  <int>  <dbl> <chr> <int>
##  1  2013     2     1    554     601 - 7.00   920    918   2.00 UA     1030
##  2  2013     2     1    654     700 - 6.00  1032   1034 - 2.00 DL      763
##  3  2013     2     1    657     705 - 8.00  1027   1035 - 8.00 VX      399
##  4  2013     2     1    658     700 - 2.00  1018   1027 - 9.00 B6      671
##  5  2013     2     1    722     705  17.0   1040   1018  22.0  UA      298
##  6  2013     2     1    807     730  37.0   1134   1100  34.0  AA       33
##  7  2013     2     1    826     830 - 4.00  1206   1154  12.0  UA      112
##  8  2013     2     1    857     900 - 3.00  1225   1227 - 2.00 DL      120
##  9  2013     2     1    859     900 - 1.00  1251   1220  31.0  AA        1
## 10  2013     2     1    901     905 - 4.00  1230   1235 - 5.00 VX      407
## # ... with 1,020 more rows, and 8 more variables: tailnum <chr>,
## #   origin <chr>, dest <chr>, air_time <dbl>, distance <dbl>, hour <dbl>,
## #   minute <dbl>, time_hour <dttm>
…
Our analysis now flows from left to right, instead of inside out. Makes things quite a bit more readable. Many people also put each step on a new line. That way if you want to exclude a step, you can just comment it out.

flights %>%
    filter(dest == "LAX") %>%
    nrow()

## [1] 16174

Controlling output

dplyr also has its own function for selecting columns: select(). To grab the certain columns from a dataframe, we supply their names to select() as arguments.

flights %>% select(flight, dest, air_time)

## # A tibble: 336,776 x 3
##    flight dest  air_time
##     <int> <chr>    <dbl>
##  1   1545 IAH      227  
##  2   1714 IAH      227  
##  3   1141 MIA      160  
##  4    725 BQN      183  
##  5    461 ATL      116  
##  6   1696 ORD      150  
##  7    507 FLL      158  
##  8   5708 IAD       53.0
##  9     79 MCO      140  
## 10    301 ORD      138  
## # ... with 336,766 more rows

We can also sort columns using arrange(). arrange() sorts a dataset by whatever column names you specify.

flights %>% arrange(sched_dep_time)

## # A tibble: 336,776 x 19
##     year month   day dep_t… sched_… dep_d… arr_… sched… arr_d… carr… flig…
##    <int> <int> <int>  <int>   <int>  <dbl> <int>  <int>  <dbl> <chr> <int>
##  1  2013     7    27     NA     106  NA       NA    245  NA    US     1632
##  2  2013     1     2    458     500 - 2.00   703    650  13.0  US     1030
##  3  2013     1     3    458     500 - 2.00   650    650   0    US     1030
##  4  2013     1     4    456     500 - 4.00   631    650 -19.0  US     1030
##  5  2013     1     5    458     500 - 2.00   640    650 -10.0  US     1030
##  6  2013     1     6    458     500 - 2.00   718    650  28.0  US     1030
##  7  2013     1     7    454     500 - 6.00   637    648 -11.0  US     1117
##  8  2013     1     8    454     500 - 6.00   625    648 -23.0  US     1117
##  9  2013     1     9    457     500 - 3.00   647    648 - 1.00 US     1117
## 10  2013     1    10    450     500 -10.0    634    648 -14.0  US     1117
## # ... with 336,766 more rows, and 8 more variables: tailnum <chr>,
## #   origin <chr>, dest <chr>, air_time <dbl>, distance <dbl>, hour <dbl>,
## #   minute <dbl>, time_hour <dttm>

To sort in descending order, we can add the desc() function into the mix.

flights %>% arrange(desc(sched_dep_time))

## # A tibble: 336,776 x 19
##     year month   day dep_t… sched… dep_del… arr_… sche… arr_d… carr… flig…
##    <int> <int> <int>  <int>  <int>    <dbl> <int> <int>  <dbl> <chr> <int>
##  1  2013     1     1   2353   2359  -  6.00   425   445 - 20.0 B6      739
##  2  2013     1     1   2353   2359  -  6.00   418   442 - 24.0 B6      707
##  3  2013     1     1   2356   2359  -  3.00   425   437 - 12.0 B6      727
##  4  2013     1     2     42   2359    43.0    518   442   36.0 B6      707
##  5  2013     1     2   2351   2359  -  8.00   427   445 - 18.0 B6      739
##  6  2013     1     2   2354   2359  -  5.00   413   437 - 24.0 B6      727
##  7  2013     1     3     32   2359    33.0    504   442   22.0 B6      707
##  8  2013     1     3    235   2359   156      700   437  143   B6      727
##  9  2013     1     3   2349   2359  - 10.0    434   445 - 11.0 B6      739
## 10  2013     1     4     25   2359    26.0    505   442   23.0 B6      707
## # ... with 336,766 more rows, and 8 more variables: tailnum <chr>,
## #   origin <chr>, dest <chr>, air_time <dbl>, distance <dbl>, hour <dbl>,
## #   minute <dbl>, time_hour <dttm>
…
